{
  "request": {
    "method": "POST",
    "url": "/v1/tags/list"
  },
  "response": {
    "status": 200,
    "jsonBody": {
      "records": [
        { "id": "167", "name": "dfsg", "created_at": 1591894733 },
        { "id": "168", "name": "dgdg", "created_at": 1592072088 },
        { "id": "5", "name": "tag tag", "created_at": 1581719553 },
        { "id": "8", "name": "canceltag", "created_at": 1582003105 },
        { "id": "11", "name": "provision", "created_at": 1582073622 },
        { "id": "15", "name": "cis", "created_at": 1582073697 },
        { "id": "16", "name": "mongo", "created_at": 1582073697 },
        { "id": "17", "name": "apache", "created_at": 1582073697 },
        { "id": "18", "name": "cassandra", "created_at": 1582073697 },
        { "id": "19", "name": "kubernetes", "created_at": 1582073697 },
        { "id": "20", "name": "postgres", "created_at": 1582073697 },
        { "id": "21", "name": "feature", "created_at": 1582073697 },
        { "id": "22", "name": "privacy", "created_at": 1582073697 },
        { "id": "23", "name": "hipaa", "created_at": 1582073697 },
        { "id": "24", "name": "isolation", "created_at": 1582073697 },
        { "id": "26", "name": "newux", "created_at": 1583362003 },
        { "id": "27", "name": "newux2", "created_at": 1583362057 },
        { "id": "28", "name": "jenkins", "created_at": 1583366567 },
        { "id": "29", "name": "newtagtag", "created_at": 1583367537 },
        { "id": "30", "name": "orphantag", "created_at": 1583367576 },
        { "id": "31", "name": "saas", "created_at": 1583534202 },
        { "id": "32", "name": "newtag1", "created_at": 1584146151 },
        { "id": "33", "name": "network", "created_at": 1585170481 },
        { "id": "34", "name": "cnn", "created_at": 1585600262 },
        { "id": "35", "name": "tag111", "created_at": 1586299461 },
        { "id": "36", "name": "iso-27001", "created_at": 1586557452 },
        { "id": "37", "name": "soc-2", "created_at": 1586557452 },
        { "id": "38", "name": "tmt_tag1", "created_at": 1587008975 },
        { "id": "39", "name": "tmt_tag2", "created_at": 1587008975 },
        { "id": "40", "name": "meghatag1", "created_at": 1587084471 },
        { "id": "41", "name": "ivantag1", "created_at": 1587084471 },
        { "id": "44", "name": "brandnew", "created_at": 1587142800 },
        { "id": "45", "name": "uploadtag", "created_at": 1587153469 },
        { "id": "46", "name": "new tag", "created_at": 1587154274 },
        { "id": "47", "name": "newnewewn", "created_at": 1587154369 },
        { "id": "48", "name": "nnn", "created_at": 1587154412 },
        { "id": "49", "name": "aaa", "created_at": 1587154412 },
        { "id": "50", "name": "bbb", "created_at": 1587154475 },
        { "id": "51", "name": "ccc", "created_at": 1587154475 },
        { "id": "52", "name": "new2", "created_at": 1587154480 },
        { "id": "53", "name": "new1", "created_at": 1587154480 },
        { "id": "54", "name": "mmm", "created_at": 1587159466 },
        { "id": "57", "name": "ddd", "created_at": 1587159521 },
        { "id": "58", "name": "mac", "created_at": 1587159575 },
        { "id": "59", "name": "thor", "created_at": 1587159575 },
        { "id": "60", "name": "ee", "created_at": 1587160763 },
        { "id": "61", "name": "updatedtag1", "created_at": 1587168509 },
        { "id": "62", "name": "updatedtag2", "created_at": 1587168509 },
        { "id": "63", "name": "updatedtag3", "created_at": 1587168509 },
        { "id": "64", "name": "test1", "created_at": 1587168556 },
        { "id": "65", "name": "soc2cc3.1", "created_at": 1587322713 },
        { "id": "66", "name": "soc2cc1.3", "created_at": 1587322805 },
        { "id": "67", "name": "soc2cc1.4", "created_at": 1587322830 },
        { "id": "68", "name": "kubernetesnew", "created_at": 1587322999 },
        { "id": "70", "name": "kubernetesnewest", "created_at": 1587323037 },
        { "id": "71", "name": "aaaaaa", "created_at": 1587323382 },
        { "id": "72", "name": "bbbbbb", "created_at": 1587323424 },
        { "id": "73", "name": "xxxxx", "created_at": 1587324398 },
        { "id": "74", "name": "testtag", "created_at": 1587325234 },
        { "id": "75", "name": "soc2cc3.2", "created_at": 1587325614 },
        { "id": "76", "name": "soc2cc4.1", "created_at": 1587326255 },
        { "id": "77", "name": "soc2cc5.1", "created_at": 1587326480 },
        { "id": "78", "name": "soc2cc5.5", "created_at": 1587328147 },
        { "id": "79", "name": "soc2cc2.2", "created_at": 1587340110 },
        { "id": "88", "name": "data-isolation", "created_at": 1587341224 },
        { "id": "97", "name": "test1_1", "created_at": 1587408583 },
        { "id": "98", "name": "test2", "created_at": 1587408583 },
        { "id": "99", "name": "test1_5", "created_at": 1587408685 },
        { "id": "100", "name": "3", "created_at": 1587408685 },
        { "id": "101", "name": "5", "created_at": 1587409168 },
        { "id": "102", "name": "app-questionnaire", "created_at": 1587686161 },
        { "id": "103", "name": "splunk", "created_at": 1587690666 },
        { "id": "104", "name": "nnnnn", "created_at": 1587767803 },
        { "id": "105", "name": "soc-2changecontrol", "created_at": 1587772564 },
        { "id": "106", "name": "release6", "created_at": 1588374512 },
        { "id": "107", "name": "r6", "created_at": 1588374512 },
        { "id": "108", "name": "pass", "created_at": 1588374663 },
        { "id": "109", "name": "infrastructure", "created_at": 1588764400 },
        { "id": "110", "name": "tags2", "created_at": 1588764400 },
        { "id": "112", "name": "code", "created_at": 1588764400 },
        { "id": "113", "name": "tags1", "created_at": 1588764400 },
        { "id": "114", "name": "slome", "created_at": 1588926769 },
        { "id": "115", "name": "testcreate", "created_at": 1588927254 },
        { "id": "116", "name": "aehfjb", "created_at": 1588954535 },
        { "id": "117", "name": "amhbd", "created_at": 1588954535 },
        { "id": "118", "name": "qwerty", "created_at": 1588954535 },
        { "id": "119", "name": "aefjhbe", "created_at": 1588954535 },
        { "id": "120", "name": "abc", "created_at": 1588954535 },
        { "id": "121", "name": "pre", "created_at": 1588964038 },
        { "id": "122", "name": "post", "created_at": 1588964038 },
        { "id": "123", "name": "strong", "created_at": 1588964038 },
        { "id": "124", "name": "test", "created_at": 1588964038 },
        { "id": "125", "name": "temp", "created_at": 1588964038 },
        { "id": "126", "name": "pentest", "created_at": 1589490694 },
        { "id": "127", "name": "ncc", "created_at": 1589660829 },
        { "id": "128", "name": "sample", "created_at": 1589660829 },
        { "id": "129", "name": "ok", "created_at": 1589660962 },
        { "id": "130", "name": "final", "created_at": 1589752535 },
        { "id": "131", "name": "bad", "created_at": 1589758880 },
        { "id": "132", "name": "abcd", "created_at": 1590066834 }
      ],
      "count": 100,
      "_metadata": { "page_size": 100, "page": 0, "next_page": 1, "has_next": true, "total_count": 134 }
    },
    "headers": {
      "Content-Type": "application/json",
      "Access-Control-Allow-Origin": "*"
    }
  }
}
